{
   "abstract" : "Functions for the design of synthetic genes",
   "author" : [
      "Sarah Richardson <SMRichardson@lbl.gov>"
   ],
   "dynamic_config" : 1,
   "generated_by" : "Module::Build version 0.4205",
   "license" : [
      "bsd"
   ],
   "meta-spec" : {
      "url" : "http://search.cpan.org/perldoc?CPAN::Meta::Spec",
      "version" : "2"
   },
   "name" : "Bio-GeneDesign",
   "prereqs" : {
      "build" : {
         "requires" : {
            "Test::Deep" : "0.1",
            "Test::More" : "0.8"
         }
      },
      "configure" : {
         "requires" : {
            "Module::Build" : "0.38"
         }
      },
      "runtime" : {
         "requires" : {
            "Bio::Root::Root" : "0",
            "Exception::Class" : "0",
            "List::Util" : "1.22",
            "Math::Combinatorics" : "0.09",
            "Text::Wrap" : "2009.0305",
            "perl" : "5.006"
         }
      }
   },
   "provides" : {
      "Bio::GeneDesign" : {
         "file" : "lib/Bio/GeneDesign.pm",
         "version" : "5.53"
      },
      "Bio::GeneDesign::Basic" : {
         "file" : "lib/Bio/GeneDesign/Basic.pm",
         "version" : "5.53"
      },
      "Bio::GeneDesign::CodonJuggle" : {
         "file" : "lib/Bio/GeneDesign/CodonJuggle.pm",
         "version" : "5.53"
      },
      "Bio::GeneDesign::Codons" : {
         "file" : "lib/Bio/GeneDesign/Codons.pm",
         "version" : "5.53"
      },
      "Bio::GeneDesign::Graph" : {
         "file" : "lib/Bio/GeneDesign/Graph.pm",
         "version" : "5.53"
      },
      "Bio::GeneDesign::Oligo" : {
         "file" : "lib/Bio/GeneDesign/Oligo.pm",
         "version" : "5.53"
      },
      "Bio::GeneDesign::PrefixTree" : {
         "file" : "lib/Bio/GeneDesign/PrefixTree.pm",
         "version" : "5.53"
      },
      "Bio::GeneDesign::Random" : {
         "file" : "lib/Bio/GeneDesign/Random.pm",
         "version" : "5.53"
      },
      "Bio::GeneDesign::RestrictionEnzyme" : {
         "file" : "lib/Bio/GeneDesign/RestrictionEnzyme.pm",
         "version" : "5.53"
      },
      "Bio::GeneDesign::RestrictionEnzymes" : {
         "file" : "lib/Bio/GeneDesign/RestrictionEnzymes.pm",
         "version" : "5.53"
      },
      "Bio::GeneDesign::ReverseTranslate" : {
         "file" : "lib/Bio/GeneDesign/ReverseTranslate.pm",
         "version" : "5.53"
      }
   },
   "release_status" : "stable",
   "resources" : {
      "license" : [
         "http://opensource.org/licenses/bsd-license.php"
      ]
   },
   "version" : "5.53"
}
